[
	{
		"planName": "price-plan-0",
		"energySupplier": "Dr Evil's Dark Energy",
		"unitRate": 10.00
	},
	{
		"planName": "price-plan-1",
		"energySupplier": "The Green Eco",
		"unitRate": 10.00
	},
	{
		"planName": "price-plan-2",
		"energySupplier": "Power for Everyone",
		"unitRate": 10.00
	}
]